-- Merging decision tree log ---
manifest
ADDED from /Volumes/Drive_D/Piyush/RUNNING/SmartSchoolAdmin/slide_menu_library/AndroidManifest.xml:2:1-11:12
INJECTED from /Volumes/Drive_D/Piyush/RUNNING/SmartSchoolAdmin/slide_menu_library/AndroidManifest.xml:2:1-11:12
INJECTED from /Volumes/Drive_D/Piyush/RUNNING/SmartSchoolAdmin/slide_menu_library/AndroidManifest.xml:2:1-11:12
INJECTED from /Volumes/Drive_D/Piyush/RUNNING/SmartSchoolAdmin/slide_menu_library/AndroidManifest.xml:2:1-11:12
INJECTED from /Volumes/Drive_D/Piyush/RUNNING/SmartSchoolAdmin/slide_menu_library/AndroidManifest.xml:2:1-11:12
INJECTED from /Volumes/Drive_D/Piyush/RUNNING/SmartSchoolAdmin/slide_menu_library/AndroidManifest.xml:2:1-11:12
INJECTED from /Volumes/Drive_D/Piyush/RUNNING/SmartSchoolAdmin/slide_menu_library/AndroidManifest.xml:2:1-11:12
	package
		ADDED from /Volumes/Drive_D/Piyush/RUNNING/SmartSchoolAdmin/slide_menu_library/AndroidManifest.xml:3:5-50
		INJECTED from /Volumes/Drive_D/Piyush/RUNNING/SmartSchoolAdmin/slide_menu_library/AndroidManifest.xml
		INJECTED from /Volumes/Drive_D/Piyush/RUNNING/SmartSchoolAdmin/slide_menu_library/AndroidManifest.xml
	android:versionName
		ADDED from /Volumes/Drive_D/Piyush/RUNNING/SmartSchoolAdmin/slide_menu_library/AndroidManifest.xml:5:5-30
		INJECTED from /Volumes/Drive_D/Piyush/RUNNING/SmartSchoolAdmin/slide_menu_library/AndroidManifest.xml
		INJECTED from /Volumes/Drive_D/Piyush/RUNNING/SmartSchoolAdmin/slide_menu_library/AndroidManifest.xml
	xmlns:android
		ADDED from /Volumes/Drive_D/Piyush/RUNNING/SmartSchoolAdmin/slide_menu_library/AndroidManifest.xml:2:11-69
	android:versionCode
		ADDED from /Volumes/Drive_D/Piyush/RUNNING/SmartSchoolAdmin/slide_menu_library/AndroidManifest.xml:4:5-28
		INJECTED from /Volumes/Drive_D/Piyush/RUNNING/SmartSchoolAdmin/slide_menu_library/AndroidManifest.xml
		INJECTED from /Volumes/Drive_D/Piyush/RUNNING/SmartSchoolAdmin/slide_menu_library/AndroidManifest.xml
uses-sdk
ADDED from /Volumes/Drive_D/Piyush/RUNNING/SmartSchoolAdmin/slide_menu_library/AndroidManifest.xml:7:5-9:41
INJECTED from /Volumes/Drive_D/Piyush/RUNNING/SmartSchoolAdmin/slide_menu_library/AndroidManifest.xml:7:5-9:41
INJECTED from /Volumes/Drive_D/Piyush/RUNNING/SmartSchoolAdmin/slide_menu_library/AndroidManifest.xml:7:5-9:41
INJECTED from /Volumes/Drive_D/Piyush/RUNNING/SmartSchoolAdmin/slide_menu_library/AndroidManifest.xml:7:5-9:41
INJECTED from /Volumes/Drive_D/Piyush/RUNNING/SmartSchoolAdmin/slide_menu_library/AndroidManifest.xml:7:5-9:41
	android:targetSdkVersion
		ADDED from /Volumes/Drive_D/Piyush/RUNNING/SmartSchoolAdmin/slide_menu_library/AndroidManifest.xml:9:9-38
		INJECTED from /Volumes/Drive_D/Piyush/RUNNING/SmartSchoolAdmin/slide_menu_library/AndroidManifest.xml
		INJECTED from /Volumes/Drive_D/Piyush/RUNNING/SmartSchoolAdmin/slide_menu_library/AndroidManifest.xml
	android:minSdkVersion
		ADDED from /Volumes/Drive_D/Piyush/RUNNING/SmartSchoolAdmin/slide_menu_library/AndroidManifest.xml:8:9-35
		INJECTED from /Volumes/Drive_D/Piyush/RUNNING/SmartSchoolAdmin/slide_menu_library/AndroidManifest.xml
		INJECTED from /Volumes/Drive_D/Piyush/RUNNING/SmartSchoolAdmin/slide_menu_library/AndroidManifest.xml
